\beamer@sectionintoc {1}{Aim}{3}{0}{1}
\beamer@sectionintoc {2}{Main Content}{4}{0}{2}
\beamer@subsectionintoc {2}{1}{What are Shmup games?}{4}{0}{2}
\beamer@subsectionintoc {2}{2}{Design and Development Process}{5}{0}{2}
\beamer@subsectionintoc {2}{3}{Technical Challenges and Solutions}{6}{0}{2}
\beamer@sectionintoc {4}{Conclusion}{8}{0}{3}
