\relax 
\providecommand\zref@newlabel[2]{}
\providecommand\hyper@newdestlabel[2]{}
\providecommand\HyField@AuxAddToFields[1]{}
\providecommand\HyField@AuxAddToCoFields[2]{}
\providecommand\pbs@newkey[2]{}
\providecommand\pbs@seq@push@cx[2]{}
\providecommand\@anim@newkey[2]{}
\@writefile{nav}{\headcommand {\slideentry {0}{0}{1}{1/1}{}{0}}}
\@writefile{nav}{\headcommand {\beamer@framepages {1}{1}}}
\@writefile{toc}{\beamer@sectionintoc {1}{Objective}{2}{0}{1}}
\@writefile{nav}{\headcommand {\beamer@sectionpages {1}{1}}}
\@writefile{nav}{\headcommand {\beamer@subsectionpages {1}{1}}}
\@writefile{nav}{\headcommand {\sectionentry {1}{Objective}{2}{Objective}{0}}}
\@writefile{nav}{\headcommand {\slideentry {1}{0}{1}{2/2}{}{0}}}
\@writefile{nav}{\headcommand {\beamer@framepages {2}{2}}}
\@writefile{toc}{\beamer@sectionintoc {2}{Differences}{3}{0}{2}}
\@writefile{nav}{\headcommand {\beamer@sectionpages {2}{2}}}
\@writefile{nav}{\headcommand {\beamer@subsectionpages {2}{2}}}
\@writefile{nav}{\headcommand {\sectionentry {2}{Differences}{3}{Differences}{0}}}
\@writefile{nav}{\headcommand {\slideentry {2}{0}{1}{3/3}{}{0}}}
\@writefile{nav}{\headcommand {\beamer@framepages {3}{3}}}
\@writefile{toc}{\beamer@sectionintoc {3}{Progress Report}{4}{0}{3}}
\@writefile{nav}{\headcommand {\beamer@sectionpages {3}{3}}}
\@writefile{nav}{\headcommand {\beamer@subsectionpages {3}{3}}}
\@writefile{nav}{\headcommand {\sectionentry {3}{Progress Report}{4}{Progress Report}{0}}}
\@writefile{nav}{\headcommand {\slideentry {3}{0}{1}{4/4}{}{0}}}
\@writefile{nav}{\headcommand {\beamer@framepages {4}{4}}}
\@writefile{nav}{\headcommand {\slideentry {3}{0}{2}{5/5}{}{0}}}
\@writefile{nav}{\headcommand {\beamer@framepages {5}{5}}}
\@writefile{toc}{\beamer@sectionintoc {4}{Summary of Progress}{6}{0}{4}}
\@writefile{nav}{\headcommand {\beamer@sectionpages {4}{5}}}
\@writefile{nav}{\headcommand {\beamer@subsectionpages {4}{5}}}
\@writefile{nav}{\headcommand {\sectionentry {4}{Summary of Progress}{6}{Summary of Progress}{0}}}
\@writefile{nav}{\headcommand {\slideentry {4}{0}{1}{6/6}{}{0}}}
\@writefile{nav}{\headcommand {\beamer@framepages {6}{6}}}
\@writefile{nav}{\headcommand {\slideentry {4}{0}{2}{7/7}{}{0}}}
\@writefile{nav}{\headcommand {\beamer@framepages {7}{7}}}
\@writefile{nav}{\headcommand {\beamer@partpages {1}{7}}}
\@writefile{nav}{\headcommand {\beamer@subsectionpages {6}{7}}}
\@writefile{nav}{\headcommand {\beamer@sectionpages {6}{7}}}
\@writefile{nav}{\headcommand {\beamer@documentpages {7}}}
\@writefile{nav}{\headcommand {\gdef \inserttotalframenumber {7}}}
\gdef \@abspage@last{7}
